{
	"additionalNodes": [],
	"additionalParameters": {
		"root": {
			"height": 148,
			"width": 246
		}
	},
	"inputs": [ {
		"command": "Variable",
		"name": "transporterID"
	}, {
		"command": "Variable",
		"name": "passangerID"
	} ],
	"outputs": [],
	"properties": {
		"9p2jvUlKO4CuxlHQEvyzrzajMWzAPA2d": {
			"height": 60,
			"title": "sequence",
			"width": 143,
			"x": 438,
			"y": 56
		},
		"ETM0340kk49IH3B51naFKDDT1AJgDkWd": {
			"height": 193,
			"title": "reference",
			"width": 316,
			"x": 1054,
			"y": -200
		},
		"Fa1pQOaJtmxGiol0jJjLaliwkUmeWwhU": {
			"height": 94,
			"title": "store",
			"width": 507,
			"x": 1052,
			"y": -330
		},
		"kjpAyCmufpxRBeoBMQlSmwStGJ1612bg": {
			"height": 151,
			"title": "reference",
			"width": 253,
			"x": 1087,
			"y": 354
		},
		"qvsBV0q0qikVnwzKiDq3KCA1IdYkBpyy": {
			"height": 92,
			"title": "nota_uhlik_base.loadUnit",
			"width": 241,
			"x": 1078,
			"y": 13
		},
		"sKZn2G14Qaua1PDeP2sjpCm1GaInaZKJ": {
			"height": 193,
			"title": "reference",
			"width": 371,
			"x": 1057,
			"y": 132
		}
	},
	"roles": [ {
		"categories": [],
		"name": "Role 0"
	} ],
	"root": {
		"children": [ {
			"children": [],
			"id": "Fa1pQOaJtmxGiol0jJjLaliwkUmeWwhU",
			"nodeType": "luaCommand",
			"parameters": [ {
				"name": "var",
				"value": "passangerPosition"
			}, {
				"name": "value",
				"value": "nota_uhlik_base.getUnitsPositions({passangerID})"
			}, {
				"name": "scriptName",
				"value": "store"
			} ],
			"scriptName": "store"
		}, {
			"children": [],
			"id": "ETM0340kk49IH3B51naFKDDT1AJgDkWd",
			"nodeType": "reference",
			"parameters": [ {
				"name": "behaviourName",
				"value": "nota_uhlik_base.moveSafeToPosition"
			} ],
			"referenceInputs": [ {
				"name": "unit",
				"value": "transporterID"
			}, {
				"name": "targetPosition",
				"value": "passangerPosition[1]"
			} ],
			"referenceOutputs": []
		}, {
			"children": [],
			"id": "qvsBV0q0qikVnwzKiDq3KCA1IdYkBpyy",
			"nodeType": "luaCommand",
			"parameters": [ {
				"name": "transporterID",
				"value": "transporterID"
			}, {
				"name": "passengerID",
				"value": "passangerID"
			}, {
				"name": "scriptName",
				"value": "nota_uhlik_base.loadUnit"
			} ],
			"scriptName": "nota_uhlik_base.loadUnit"
		}, {
			"children": [],
			"id": "sKZn2G14Qaua1PDeP2sjpCm1GaInaZKJ",
			"nodeType": "reference",
			"parameters": [ {
				"name": "behaviourName",
				"value": "nota_uhlik_base.moveSafeToPosition"
			} ],
			"referenceInputs": [ {
				"name": "unit",
				"value": "transporterID"
			}, {
				"name": "targetPosition",
				"value": "core.MissionInfo().safeArea.center"
			} ],
			"referenceOutputs": []
		}, {
			"children": [],
			"id": "kjpAyCmufpxRBeoBMQlSmwStGJ1612bg",
			"nodeType": "reference",
			"parameters": [ {
				"name": "behaviourName",
				"value": "nota_uhlik_base.unloadUnit"
			} ],
			"referenceInputs": [ {
				"name": "transporterID",
				"value": "transporterID"
			}, {
				"name": "passangerID",
				"value": "passangerID"
			} ],
			"referenceOutputs": []
		} ],
		"id": "9p2jvUlKO4CuxlHQEvyzrzajMWzAPA2d",
		"nodeType": "sequence",
		"parameters": []
	}
}