{
	"additionalNodes": [],
	"additionalParameters": {
		"root": {
			"height": 128,
			"width": 246
		}
	},
	"inputs": [],
	"outputs": [],
	"properties": {
		"1qkyHe35xGQQid487RsTz8yxsQvA2q45": {
			"height": 90,
			"title": "luaCondition",
			"width": 287,
			"x": 1569,
			"y": 253
		},
		"6Xm9rhYBkMEfyQcoAJoAGita8d5COGQZ": {
			"height": 70,
			"title": "parallel",
			"width": 202,
			"x": 838,
			"y": 147
		},
		"AkHGqJWnXEhJxFSiXHz8HmDHjaDfpst2": {
			"height": 54,
			"title": "nota_common.manualMissionEnd",
			"width": 296,
			"x": 819,
			"y": 285
		},
		"Do03o7j2hVwTAoJRnxZmdC4HLx9dMX2M": {
			"height": 193,
			"title": "reference",
			"width": 294,
			"x": 1913,
			"y": 376
		},
		"Uy0H0y3ZRSy6TdzEb3gWh1nkvcUECnZu": {
			"height": 94,
			"title": "store",
			"width": 359,
			"x": 544,
			"y": -91
		},
		"YgNeG2nmruL4SuEdwSLlQrBVbkMb0haZ": {
			"height": 90,
			"title": "luaCondition",
			"width": 245,
			"x": 539,
			"y": 141
		},
		"cGwGUlqgdllxS4R5O6bHG88N45mNlOPJ": {
			"height": 60,
			"title": "sequence",
			"width": 143,
			"x": 337,
			"y": 20
		},
		"e3eEyOa6GVangPx9xXMdaalxFWbhLTAa": {
			"height": 130,
			"title": "reference",
			"width": 209,
			"x": 1921,
			"y": 228
		},
		"gB6lbQ7OzZpwk0Neb2cC1iXe19Jjtj4y": {
			"height": 92,
			"title": "nota_uhlik_base.scoutMap",
			"width": 251,
			"x": 1299,
			"y": 7
		},
		"rXszJ6HlZa3tLyM723kSJpQQzZa8zTAu": {
			"height": 60,
			"title": "sequence",
			"width": 143,
			"x": 1146,
			"y": 214
		},
		"s7Md3lOrFj0ILX8xH4Pq8xZjPQAP0rqm": {
			"height": 60,
			"title": "repeat",
			"width": 131,
			"x": 1389,
			"y": 264
		},
		"vCH6M0llWiqS3kpNg8DqRAJxfCLHGiEx": {
			"height": 72,
			"title": "wait",
			"width": 131,
			"x": 1385,
			"y": 163
		}
	},
	"roles": [ {
		"categories": [],
		"name": "Role 0"
	} ],
	"root": {
		"children": [ {
			"children": [],
			"id": "Uy0H0y3ZRSy6TdzEb3gWh1nkvcUECnZu",
			"nodeType": "luaCommand",
			"parameters": [ {
				"name": "var",
				"value": "troops"
			}, {
				"name": "value",
				"value": "getTroopsForTTDR(units)"
			}, {
				"name": "scriptName",
				"value": "store"
			} ],
			"scriptName": "store"
		}, {
			"children": [ {
				"children": [ {
					"children": [],
					"id": "gB6lbQ7OzZpwk0Neb2cC1iXe19Jjtj4y",
					"nodeType": "luaCommand",
					"parameters": [ {
						"name": "scoutUnits",
						"value": "troops.armpeep"
					}, {
						"name": "direction",
						"value": "\"south\""
					}, {
						"name": "scriptName",
						"value": "nota_uhlik_base.scoutMap"
					} ],
					"scriptName": "nota_uhlik_base.scoutMap"
				}, {
					"children": [ {
						"children": [],
						"id": "vCH6M0llWiqS3kpNg8DqRAJxfCLHGiEx",
						"nodeType": "wait",
						"parameters": [ {
							"name": "time",
							"value": 60
						} ]
					}, {
						"children": [ {
							"children": [ {
								"children": [],
								"id": "e3eEyOa6GVangPx9xXMdaalxFWbhLTAa",
								"nodeType": "reference",
								"parameters": [ {
									"name": "behaviourName",
									"value": "nota_uhlik_base.grid"
								} ],
								"referenceInputs": [],
								"referenceOutputs": []
							}, {
								"children": [],
								"id": "Do03o7j2hVwTAoJRnxZmdC4HLx9dMX2M",
								"nodeType": "reference",
								"parameters": [ {
									"name": "behaviourName",
									"value": "nota_uhlik_base.evacuationPlan"
								} ],
								"referenceInputs": [ {
									"name": "transporters",
									"value": "troops.armatlas"
								}, {
									"name": "targets",
									"value": "troops.targetUnits"
								} ],
								"referenceOutputs": []
							} ],
							"id": "1qkyHe35xGQQid487RsTz8yxsQvA2q45",
							"nodeType": "luaCondition",
							"parameters": [ {
								"name": "expression",
								"value": "bb.grid == nil"
							}, {
								"name": "repeat",
								"value": "true"
							} ]
						} ],
						"id": "s7Md3lOrFj0ILX8xH4Pq8xZjPQAP0rqm",
						"nodeType": "repeat",
						"parameters": []
					} ],
					"id": "rXszJ6HlZa3tLyM723kSJpQQzZa8zTAu",
					"nodeType": "sequence",
					"parameters": []
				} ],
				"id": "6Xm9rhYBkMEfyQcoAJoAGita8d5COGQZ",
				"nodeType": "parallel",
				"parameters": [ {
					"name": "mode",
					"value": "any-success"
				} ]
			}, {
				"children": [],
				"id": "AkHGqJWnXEhJxFSiXHz8HmDHjaDfpst2",
				"nodeType": "luaCommand",
				"parameters": [ {
					"name": "scriptName",
					"value": "nota_common.manualMissionEnd"
				} ],
				"scriptName": "nota_common.manualMissionEnd"
			} ],
			"id": "YgNeG2nmruL4SuEdwSLlQrBVbkMb0haZ",
			"nodeType": "luaCondition",
			"parameters": [ {
				"name": "expression",
				"value": "core.MissionInfo().score < 160"
			}, {
				"name": "repeat",
				"value": "true"
			} ]
		} ],
		"id": "cGwGUlqgdllxS4R5O6bHG88N45mNlOPJ",
		"nodeType": "sequence",
		"parameters": []
	}
}